{
    "/js/app.js": "/js/app.js",
    "/css/app.css": "/css/app.css",
    "/css/cloak.css": "/css/cloak.css",
    "/css/customcard.css": "/css/customcard.css",
    "/css/createalbumform.css": "/css/createalbumform.css",
    "/css/formtags.css": "/css/formtags.css",
    "/css/customaddins.css": "/css/customaddins.css",
    "/css/lightbox.css": "/css/lightbox.css",
    "/css/portfoliostyle.css": "/css/portfoliostyle.css",
    "/css/gallerycard.css": "/css/gallerycard.css"
}
